<svg xmlns="http://www.w3.org/2000/svg" width="35" height="33" viewBox="0 0 35 33">
    <g fill="none" fill-rule="nonzero">
        <path fill="#C5D9EF" d="M30.912 28.77V1.66H3.65v27.11z"/>
        <path fill="#002A76" d="M30.912 2.292H3.65A.647.647 0 0 1 3 1.646C3 1.289 3.29 1 3.65 1h27.262c.359 0 .65.29.65.646 0 .357-.291.646-.65.646zM27.018 7.458H12.737a.647.647 0 0 1-.65-.646c0-.356.291-.645.65-.645h14.28c.359 0 .65.289.65.646 0 .356-.291.645-.65.645z"/>
        <path fill="#002A76" d="M30.266 13.066V1.33c0-.194.29-.351.646-.351.357 0 .646.157.646.351v11.736c0 .194-.289.351-.646.351-.356 0-.646-.157-.646-.351zM10.14 8.75H7.544a.647.647 0 0 1-.65-.646V5.521c0-.357.291-.646.65-.646h2.596c.359 0 .65.29.65.646v2.583c0 .357-.291.646-.65.646zM8.193 7.458h1.298V6.167H8.193v1.291zM25.664 12.625H12.737a.647.647 0 0 1-.65-.646c0-.357.291-.646.65-.646h12.927c.359 0 .65.29.65.646 0 .357-.291.646-.65.646zM10.14 13.917H7.544a.647.647 0 0 1-.65-.646v-2.584c0-.356.291-.645.65-.645h2.596c.359 0 .65.289.65.646v2.583c0 .357-.291.646-.65.646zm-1.947-1.292h1.298v-1.292H8.193v1.292zM21.333 17.792h-8.596a.647.647 0 0 1-.65-.646c0-.357.291-.646.65-.646h8.596c.359 0 .65.29.65.646 0 .357-.291.646-.65.646zM10.14 19.083H7.544a.647.647 0 0 1-.65-.645v-2.584c0-.357.291-.646.65-.646h2.596c.359 0 .65.29.65.646v2.584c0 .356-.291.645-.65.645zm-1.947-1.291h1.298V16.5H8.193v1.292zM21.683 22.958h-8.946a.647.647 0 0 1-.65-.645c0-.357.291-.646.65-.646h8.946c.359 0 .65.289.65.645 0 .357-.291.646-.65.646zM10.14 24.25H7.544a.647.647 0 0 1-.65-.646v-2.583c0-.357.291-.646.65-.646h2.596c.359 0 .65.29.65.646v2.583c0 .357-.291.646-.65.646zm-1.947-1.292h1.298v-1.291H8.193v1.291z"/>
        <path fill="#002A76" d="M29.614 29.417H3.649A.647.647 0 0 1 3 28.77V1.566c0-.055 1.298-.412 1.298-.412v26.971h25.316c.359 0 .65.29.65.646 0 .357-.291.646-.65.646z"/>
        <g transform="translate(0 3)">
            <path fill="#FFF" d="M27.912 28.77V1.66H.65v27.11z"/>
            <path fill="#002A76" d="M27.912 2.292H.65A.647.647 0 0 1 0 1.646C0 1.289.29 1 .65 1h27.262c.359 0 .65.29.65.646 0 .357-.291.646-.65.646zM24.018 7.458H9.737a.647.647 0 0 1-.65-.646c0-.356.291-.645.65-.645h14.28c.359 0 .65.289.65.646 0 .356-.291.645-.65.645z"/>
            <path fill="#002A76" d="M27.266 11.066V1.33c0-.194.29-.351.646-.351.357 0 .646.157.646.351v9.736c0 .194-.289.351-.646.351-.356 0-.646-.157-.646-.351zM7.14 8.75H4.544a.647.647 0 0 1-.65-.646V5.521c0-.357.291-.646.65-.646H7.14c.359 0 .65.29.65.646v2.583c0 .357-.291.646-.65.646zM5.193 7.458h1.298V6.167H5.193v1.291zM22.664 12.625H9.737a.647.647 0 0 1-.65-.646c0-.357.291-.646.65-.646h12.927c.359 0 .65.29.65.646 0 .357-.291.646-.65.646zM7.14 13.917H4.544a.647.647 0 0 1-.65-.646v-2.584c0-.356.291-.645.65-.645H7.14c.359 0 .65.289.65.646v2.583c0 .357-.291.646-.65.646zm-1.947-1.292h1.298v-1.292H5.193v1.292zM18.333 17.792H9.737a.647.647 0 0 1-.65-.646c0-.357.291-.646.65-.646h8.596c.359 0 .65.29.65.646 0 .357-.291.646-.65.646zM7.14 19.083H4.544a.647.647 0 0 1-.65-.645v-2.584c0-.357.291-.646.65-.646H7.14c.359 0 .65.29.65.646v2.584c0 .356-.291.645-.65.645zm-1.947-1.291h1.298V16.5H5.193v1.292zM18.683 22.958H9.737a.647.647 0 0 1-.65-.645c0-.357.291-.646.65-.646h8.946c.359 0 .65.289.65.645 0 .357-.291.646-.65.646zM7.14 24.25H4.544a.647.647 0 0 1-.65-.646v-2.583c0-.357.291-.646.65-.646H7.14c.359 0 .65.29.65.646v2.583c0 .357-.291.646-.65.646zm-1.947-1.292h1.298v-1.291H5.193v1.291z"/>
            <path fill="#002A76" d="M26.614 29.417H.649A.647.647 0 0 1 0 28.77V1.566c0-.055 1.298-.412 1.298-.412v26.971h25.316c.359 0 .65.29.65.646 0 .357-.291.646-.65.646z"/>
            <ellipse cx="27.772" cy="19.5" fill="#002A76" rx="6.491" ry="6.458"/>
            <path fill="#002A76" d="M27.772 26.604c-3.944 0-7.14-3.18-7.14-7.104s3.196-7.104 7.14-7.104c3.943 0 7.14 3.18 7.14 7.104a7.086 7.086 0 0 1-2.091 5.023 7.159 7.159 0 0 1-5.05 2.081zm0-12.916c-3.227 0-5.842 2.602-5.842 5.812 0 3.21 2.615 5.813 5.842 5.813 3.226 0 5.842-2.603 5.842-5.813 0-3.21-2.616-5.813-5.842-5.813z"/>
            <path fill="#FFF" d="M26.909 23.052a.65.65 0 0 1-.448-.18l-2.383-2.261a.644.644 0 0 1-.022-.914.652.652 0 0 1 .918-.023l1.824 1.764 3.032-4.521a.65.65 0 0 1 1.146.054.643.643 0 0 1-.069.663l-3.46 5.166a.65.65 0 0 1-.467.284l-.071-.032z"/>
        </g>
    </g>
</svg>
