<svg xmlns="http://www.w3.org/2000/svg" xmlns:xlink="http://www.w3.org/1999/xlink" width="289" height="73" viewBox="0 0 289 73">
    <defs>
        <path id="a" d="M87.737 62.344c0 1.043-.855 1.889-1.908 1.889a1.899 1.899 0 0 1-1.907-1.89c0-1.042.855-1.888 1.907-1.888 1.053 0 1.908.846 1.908 1.889z"/>
        <path id="b" d="M26.702 62.344c0 1.043-.854 1.889-1.907 1.889a1.899 1.899 0 0 1-1.907-1.89c0-1.042.854-1.888 1.907-1.888s1.907.846 1.907 1.889z"/>
    </defs>
    <g fill="none" fill-rule="evenodd">
        <path fill="#FFF" d="M0 49.12c0 6.26 5.123 11.335 11.444 11.335h57.22V45.34H0v3.778z"/>
        <path stroke="#002A76" stroke-linecap="round" stroke-linejoin="round" stroke-width="3" d="M0 45.34v3.78c0 6.26 5.123 11.335 11.444 11.335h57.22V45.34H0z"/>
        <path fill="#C5D9EF" d="M68.663 45.34V11.336C68.663 5.075 63.54 0 57.22 0H11.444C5.124 0 0 5.074 0 11.335v34.006h68.663"/>
        <path stroke="#002A76" stroke-linecap="round" stroke-linejoin="round" stroke-width="3" d="M68.663 45.34V11.336C68.663 5.075 63.54 0 57.22 0H11.444C5.124 0 0 5.074 0 11.335v34.006h68.663z"/>
        <path fill="#FFF" d="M95.366 60.455h3.815c4.213 0 7.629-3.384 7.629-7.557V42.156c0-4.01-1.608-7.854-4.469-10.688L90.298 19.54a15.334 15.334 0 0 0-10.79-4.426H68.664v45.34h7.63"/>
        <path stroke="#002A76" stroke-linecap="round" stroke-linejoin="round" stroke-width="3" d="M95.366 60.455h3.815c4.213 0 7.629-3.384 7.629-7.557V42.156c0-4.01-1.608-7.854-4.469-10.688L90.298 19.54a15.334 15.334 0 0 0-10.79-4.426H68.664v45.34h7.63M98.273 49.12h7.63-7.63z"/>
        <path fill="#77BA43" d="M57.22 0v45.34"/>
        <path fill="#C5D9EF" d="M102.341 31.468l-8.882-8.798H80.107c-2.105 0-3.814 1.691-3.814 3.779v7.557c0 2.087 1.709 3.778 3.814 3.778h26.05a15.083 15.083 0 0 0-3.816-6.316"/>
        <path stroke="#002A76" stroke-linecap="round" stroke-linejoin="round" stroke-width="3" d="M102.341 31.468l-8.882-8.798H80.107c-2.105 0-3.814 1.691-3.814 3.779v7.557c0 2.087 1.709 3.778 3.814 3.778h26.05a15.083 15.083 0 0 0-3.816-6.316z"/>
        <path fill="#C5D9EF" d="M95.366 62.344c0 5.216-4.27 9.446-9.537 9.446-5.266 0-9.536-4.23-9.536-9.446 0-5.216 4.27-9.446 9.536-9.446s9.537 4.23 9.537 9.446"/>
        <path stroke="#002A76" stroke-linecap="round" stroke-linejoin="round" stroke-width="3" d="M95.366 62.344c0 5.216-4.27 9.446-9.537 9.446-5.266 0-9.536-4.23-9.536-9.446 0-5.216 4.27-9.446 9.536-9.446s9.537 4.23 9.537 9.446z"/>
        <path fill="#9FA5A7" d="M87.737 62.344c0 1.043-.855 1.889-1.908 1.889a1.899 1.899 0 0 1-1.907-1.89c0-1.042.855-1.888 1.907-1.888 1.053 0 1.908.846 1.908 1.889"/>
        <g stroke="#002A76">
            <path stroke-width="2" d="M86.737 62.344a.9.9 0 0 1-.908.889.9.9 0 0 1-.907-.89.9.9 0 0 1 .907-.888.9.9 0 0 1 .908.889z"/>
            <use xlink:href="#a"/>
        </g>
        <path fill="#C5D9EF" d="M34.332 62.344c0 5.216-4.27 9.446-9.537 9.446-5.266 0-9.536-4.23-9.536-9.446 0-5.216 4.27-9.446 9.536-9.446s9.537 4.23 9.537 9.446"/>
        <path stroke="#002A76" stroke-linecap="round" stroke-linejoin="round" stroke-width="3" d="M34.332 62.344c0 5.216-4.27 9.446-9.537 9.446-5.266 0-9.536-4.23-9.536-9.446 0-5.216 4.27-9.446 9.536-9.446s9.537 4.23 9.537 9.446z"/>
        <path fill="#9FA5A7" d="M26.702 62.344c0 1.043-.854 1.889-1.907 1.889a1.899 1.899 0 0 1-1.907-1.89c0-1.042.854-1.888 1.907-1.888s1.907.846 1.907 1.889"/>
        <g stroke="#002A76">
            <path stroke-width="2" d="M25.702 62.344a.9.9 0 0 1-.907.889.9.9 0 0 1-.907-.89.9.9 0 0 1 .907-.888.9.9 0 0 1 .907.889z"/>
            <use xlink:href="#b"/>
        </g>
        <g>
            <path fill="#FFF" d="M194.803 59.365c3.979 0 7.204-3.21 7.204-7.17v-7.75c0-3.96-3.225-7.17-7.204-7.17h-10.557a2.775 2.775 0 0 1-2.34-1.278l-4.096-8.195a12.857 12.857 0 0 0-11.505-7.093h-27.586c-6.416 0-11.618 5.177-11.618 11.562V52.06c0 4.034 3.286 7.305 7.34 7.305h60.362"/>
            <path stroke="#002A76" stroke-linecap="round" stroke-linejoin="round" stroke-width="3" d="M194.803 59.365c3.979 0 7.204-3.21 7.204-7.17v-7.75c0-3.96-3.225-7.17-7.204-7.17h-10.557a2.775 2.775 0 0 1-2.34-1.278l-4.096-8.195a12.857 12.857 0 0 0-11.505-7.093h-27.586c-6.416 0-11.618 5.177-11.618 11.562V52.06c0 4.034 3.286 7.305 7.34 7.305h60.362z"/>
            <path fill="#C5D9EF" d="M136.552 37.275h47.694a2.775 2.775 0 0 1-2.34-1.278l-4.096-8.195a12.785 12.785 0 0 0-.933-1.571h-36.251c-3.639 0-6.589 2.936-6.589 6.558v1.985a2.508 2.508 0 0 0 2.515 2.501"/>
            <path stroke="#002A76" stroke-linecap="round" stroke-linejoin="round" stroke-width="3" d="M136.552 37.275h47.694a2.775 2.775 0 0 1-2.34-1.278l-4.096-8.195a12.785 12.785 0 0 0-.933-1.571h-36.251c-3.639 0-6.589 2.936-6.589 6.558v1.985a2.508 2.508 0 0 0 2.515 2.501zM153.053 58.709h23.138"/>
            <path fill="#D8E2E0" d="M149.296 37.275V26.231"/>
            <path stroke="#002A76" stroke-linecap="round" stroke-linejoin="round" stroke-width="3" d="M149.101 37.275V26.231"/>
            <path fill="#D8E2E0" d="M163.167 37.275V26.231"/>
            <path stroke="#002A76" stroke-linecap="round" stroke-linejoin="round" stroke-width="3" d="M163.167 37.275V26.231m2.774 16.567h2.775"/>
            <path fill="#C5D9EF" d="M153.457 62.126c0 5.337-4.347 9.664-9.71 9.664s-9.71-4.327-9.71-9.664c0-5.338 4.347-9.664 9.71-9.664s9.71 4.326 9.71 9.664"/>
            <path stroke="#002A76" stroke-linecap="round" stroke-linejoin="round" stroke-width="3" d="M153.457 62.126c0 5.337-4.347 9.664-9.71 9.664s-9.71-4.327-9.71-9.664c0-5.338 4.347-9.664 9.71-9.664s9.71 4.326 9.71 9.664z"/>
            <path fill="#C5D9EF" d="M195.207 62.126c0 5.337-4.347 9.664-9.71 9.664s-9.71-4.327-9.71-9.664c0-5.338 4.347-9.664 9.71-9.664s9.71 4.326 9.71 9.664"/>
            <path stroke="#002A76" stroke-linecap="round" stroke-linejoin="round" stroke-width="3" d="M195.207 62.126c0 5.337-4.347 9.664-9.71 9.664s-9.71-4.327-9.71-9.664c0-5.338 4.347-9.664 9.71-9.664s9.71 4.326 9.71 9.664zm1.251-13.806a2.768 2.768 0 0 1-2.774-2.761 2.768 2.768 0 0 1 2.774-2.761v5.522z"/>
            <path fill="#002A76" d="M146.174 62.126a2.42 2.42 0 0 1-2.427 2.416 2.422 2.422 0 0 1-2.428-2.416 2.423 2.423 0 0 1 2.428-2.416 2.422 2.422 0 0 1 2.427 2.416"/>
            <path stroke="#002A76" stroke-width="2" d="M145.174 62.126a1.42 1.42 0 0 1-1.427 1.416c-.79 0-1.428-.635-1.428-1.416 0-.78.64-1.416 1.428-1.416.79 0 1.427.635 1.427 1.416z"/>
            <path fill="#002A76" d="M187.925 62.126a2.42 2.42 0 0 1-2.428 2.416 2.422 2.422 0 0 1-2.427-2.416 2.423 2.423 0 0 1 2.427-2.416 2.422 2.422 0 0 1 2.428 2.416"/>
            <path stroke="#002A76" stroke-width="2" d="M186.925 62.126a1.42 1.42 0 0 1-1.428 1.416c-.79 0-1.427-.635-1.427-1.416 0-.78.638-1.416 1.427-1.416.79 0 1.428.635 1.428 1.416z"/>
        </g>
        <g>
            <path fill="#C5D9EF" d="M278.871 46.9c5.6 1.416 9.635 6.706 9.01 12.813-.562 5.51-5.07 10.013-10.634 10.621-7.284.795-13.448-4.823-13.448-11.865l.001-.124"/>
            <path stroke="#002A76" stroke-linecap="round" stroke-linejoin="round" stroke-width="3" d="M278.871 46.9c5.6 1.416 9.635 6.706 9.01 12.813-.562 5.51-5.07 10.013-10.634 10.621-7.284.795-13.448-4.823-13.448-11.865l.001-.124"/>
            <path fill="#FFF" d="M280.642 57.714c.5 3.228-2.27 5.967-5.533 5.474-2.034-.308-3.696-1.952-4.008-3.964-.499-3.228 2.27-5.967 5.534-5.472 2.035.308 3.696 1.95 4.007 3.962"/>
            <path stroke="#002A76" stroke-linecap="round" stroke-linejoin="round" stroke-width="3" d="M280.642 57.714c.5 3.228-2.27 5.967-5.533 5.474-2.034-.308-3.696-1.952-4.008-3.964-.499-3.228 2.27-5.967 5.534-5.472 2.035.308 3.696 1.95 4.007 3.962z"/>
            <path fill="#9FA5A7" d="M271.646 52.873l4.226 5.596"/>
            <path stroke="#002A76" stroke-linecap="round" stroke-linejoin="round" stroke-width="2" d="M271.646 52.873l4.226 5.596"/>
            <path fill="#FFF" d="M246.67 60.857h13.507l16.666-11.625a7.689 7.689 0 0 0 2.196-9.574l-7.586-12.738a1.42 1.42 0 0 0-1.22-.69h-.023c-.844 0-1.5.726-1.407 1.555l1.032 9.192h-9.73c-3.962 0-7.172 3.175-7.172 7.092v.072h-11.321l-5.858-5.793a4.759 4.759 0 0 0-3.346-1.371H227.7c-1.4 0-2.536 1.122-2.536 2.507v.036c0 .665.267 1.303.743 1.773l5.71 5.647"/>
            <path stroke="#002A76" stroke-linecap="round" stroke-linejoin="round" stroke-width="3" d="M246.67 60.857h13.507l16.666-11.625a7.689 7.689 0 0 0 2.196-9.574l-7.586-12.738a1.42 1.42 0 0 0-1.22-.69h-.023c-.844 0-1.5.726-1.407 1.555l1.032 9.192h-9.73c-3.962 0-7.172 3.175-7.172 7.092v.072h-11.321l-5.858-5.793a4.759 4.759 0 0 0-3.346-1.371H227.7c-1.4 0-2.536 1.122-2.536 2.507v.036c0 .665.267 1.303.743 1.773l5.71 5.647"/>
            <path fill="#F9C822" d="M252.933 44.141h16.902"/>
            <path stroke="#002A76" stroke-linecap="round" stroke-linejoin="round" stroke-width="3" d="M252 44.1l16-.1"/>
            <path fill="#C5D9EF" d="M246.728 56.446c1.355 8.172-5.687 15.138-13.95 13.797-5.003-.812-9.04-4.803-9.86-9.751-1.356-8.172 5.687-15.137 13.95-13.797 5.003.812 9.04 4.803 9.86 9.751"/>
            <path stroke="#002A76" stroke-linecap="round" stroke-linejoin="round" stroke-width="3" d="M246.728 56.446c1.355 8.172-5.687 15.138-13.95 13.797-5.003-.812-9.04-4.803-9.86-9.751-1.356-8.172 5.687-15.137 13.95-13.797 5.003.812 9.04 4.803 9.86 9.751z"/>
            <path fill="#FFF" d="M239.593 57.714c.5 3.228-2.27 5.967-5.533 5.474-2.034-.308-3.696-1.952-4.008-3.964-.499-3.228 2.27-5.967 5.534-5.472 2.034.308 3.696 1.95 4.007 3.962"/>
            <path stroke="#002A76" stroke-linecap="round" stroke-linejoin="round" stroke-width="3" d="M239.593 57.714c.5 3.228-2.27 5.967-5.533 5.474-2.034-.308-3.696-1.952-4.008-3.964-.499-3.228 2.27-5.967 5.534-5.472 2.034.308 3.696 1.95 4.007 3.962z"/>
        </g>
    </g>
</svg>
