<svg xmlns="http://www.w3.org/2000/svg" width="77" height="90" viewBox="0 0 77 90">
    <g fill="none" fill-rule="nonzero">
        <path fill="#C5D9EF" d="M74.151 78.568a3.52 3.52 0 0 1-1.54 6.17A173.853 173.853 0 0 1 38.5 87.915a168.594 168.594 0 0 1-33.88-3.192 3.52 3.52 0 0 1-1.54-6.17c4.481-3.779 10.903-6.833 19.82-8.36h.724c.646 2.345 6.699 7.558 14.953 7.558s13.86-5.059 14.969-7.558v-.092c.134.076.28.128.431.154 9.27 1.357 15.739 4.473 20.174 8.313z"/>
        <path fill="#FFF" d="M53.623 70.085v.093c-1.124 2.499-6.7 7.558-14.969 7.558-8.27 0-14.353-5.244-15-7.558H23.1c1.54-.57 3.342-4.195 2.125-8.267 5.344 4.843 9.148 6.94 11.15 6.94a5.89 5.89 0 0 1 2.31-.508c.835.016 1.66.189 2.433.509a29.842 29.842 0 0 0 10.503-6.941c-.955 3.995.585 7.403 2.002 8.174z"/>
        <path fill="#C5D9EF" d="M49.372 9.887c7.423 2.637 12.875 9.254 11.843 18.261a11.613 11.613 0 0 1-1.001 3.81 3.426 3.426 0 0 0-1.357-3.008 3.414 3.414 0 0 0-3.263-.462c-7.7 2.76-14.276-4.627-24.024 2.76a7.72 7.72 0 0 1 1.632-9.655c-4.404.51-6.514 3.208-9.979 4.951-3.465 1.743-5.729 1.897-5.652 4.782h-.077c-.585-.849-1.078-1.203-1.262-2.005-2.372-9.78 3.28-15.44 11.18-18.94 1.54-.68.37-9.78 2.033-8.16C34.049 6.694 46.4 8.822 49.372 9.887z"/>
        <path fill="#FFF" d="M60.183 31.943c-.257.462-.459.954-.6 1.465 0 0-1.094-.771-1.279.216.755.77 2.264 1.912 2.264 3.67 0 2.669-.662 7.928-3.696 9.579-.277 5.86-5.22 15.022-5.22 15.022a29.842 29.842 0 0 1-10.503 6.941 6.706 6.706 0 0 0-2.433-.509 5.89 5.89 0 0 0-2.31.51c-2.002 0-5.806-2.099-11.15-6.942 0 0-4.928-9.161-5.19-15.022-3.08-1.543-3.711-6.91-3.711-9.578 0-1.759 1.54-2.9 2.264-3.671a9.707 9.707 0 0 0-1.155-2.268h.077c-.077-2.884 2.11-3.007 5.651-4.78 3.542-1.775 5.606-4.474 10.01-4.983a7.72 7.72 0 0 0-1.724 9.64c9.748-7.388 16.262 0 24.024-2.76a3.414 3.414 0 0 1 3.309.424 3.426 3.426 0 0 1 1.372 3.046z"/>
        <path fill="#002A76" d="M38.5 89.458a169.578 169.578 0 0 1-34.157-3.224 5.064 5.064 0 0 1-2.218-8.807c5.128-4.319 12.043-7.249 20.56-8.714.615-.293 2.124-3.085 1.139-6.37a1.546 1.546 0 0 1 .359-1.502 1.54 1.54 0 0 1 2.598.623c.851 2.73.528 5.693-.894 8.174a4.205 4.205 0 0 1-2.68 2.129c-7.976 1.372-14.398 4.071-19.095 8.035a1.976 1.976 0 0 0 .862 3.486A166.533 166.533 0 0 0 38.5 86.373a170.931 170.931 0 0 0 33.757-3.208 1.976 1.976 0 0 0 .909-3.424c-4.713-4.072-11.227-6.756-19.328-7.974-1.076-.236-2-.92-2.54-1.882a10.703 10.703 0 0 1-1.094-8.36 1.542 1.542 0 0 1 2.567-.729c.395.385.555.95.42 1.485-.877 3.455.54 6.17 1.186 6.447 8.609 1.28 15.631 4.21 20.806 8.668a5.064 5.064 0 0 1 1.59 5.113 5.055 5.055 0 0 1-3.885 3.679 174.084 174.084 0 0 1-34.388 3.27z"/>
        <path fill="#002A76" d="M41.18 70.394a1.83 1.83 0 0 1-.709-.154 4.614 4.614 0 0 0-1.725-.355 3.83 3.83 0 0 0-1.54.34 1.8 1.8 0 0 1-.739.169c-3.372 0-8.485-3.995-12.197-7.357-.13-.12-.24-.26-.323-.417-.2-.37-4.62-8.745-5.313-14.837-3.573-2.622-3.773-9.131-3.773-10.488a5.71 5.71 0 0 1 1.971-4.041A7.574 7.574 0 0 0 15.8 31.71a4.722 4.722 0 0 1-1.062-1.943c-2.187-9.085 1.755-16.01 11.72-20.606.215-1.15.333-2.316.353-3.486.139-2.792.231-4.488 1.617-5.028a1.892 1.892 0 0 1 2.08.509C33.74 4.242 41.641 6.308 46.368 7.51c1.54.386 2.757.694 3.512.972 8.824 3.085 13.86 10.935 12.859 19.881a13.172 13.172 0 0 1-1.356 4.766 4.044 4.044 0 0 0-.261.602 1.544 1.544 0 0 1-.17.462 5.048 5.048 0 0 1 1.17 3.085c0 1.327-.184 7.712-3.757 10.457-.631 6.17-5.128 14.499-5.328 14.869-.067.124-.15.238-.247.34-3.927 4.087-10.118 7.449-11.611 7.449zm-14.661-9.47c5.99 5.398 8.793 6.17 9.686 6.354a6.875 6.875 0 0 1 2.541-.493 7.49 7.49 0 0 1 2.51.432 31.798 31.798 0 0 0 9.24-6.262c.678-1.311 4.62-9.162 4.929-14.16.025-.537.329-1.022.8-1.28 1.987-1.08 2.896-5.028 2.896-8.22 0-.849-.755-1.543-1.433-2.206l-.385-.37a1.544 1.544 0 0 1-.415-1.373c.11-.719.58-1.33 1.247-1.62a2.03 2.03 0 0 1 .616-.138 10.284 10.284 0 0 0 1.001-3.625c1.016-9.054-4.928-14.529-10.78-16.627-.631-.215-1.833-.524-3.25-.894-4.512-1.11-11.534-2.9-15.769-5.815v1.188c-.154 2.946-.262 5.275-1.848 6-8.901 4.01-12.181 9.47-10.303 17.212 0 .201.139.324.462.74.825 1.001 1.466 2.14 1.895 3.363a1.544 1.544 0 0 1-.355 1.635l-.385.37c-.677.633-1.432 1.358-1.432 2.206 0 2.714.755 7.156 2.85 8.205.498.251.822.753.846 1.311.185 4.92 4.097 12.648 4.836 14.082v-.015z"/>
        <path fill="#002A76" d="M60.183 33.485h-.123a1.54 1.54 0 0 1-1.448-1.635 1.775 1.775 0 0 0-.631-1.635 2.245 2.245 0 0 0-2.002-.278 18.16 18.16 0 0 1-9.871.093c-4.359-.802-8.47-1.542-13.753 2.452a1.538 1.538 0 0 1-2.263-.447 9.73 9.73 0 0 1-.724-7.542c-.724.416-1.417.894-2.156 1.388a28.22 28.22 0 0 1-3.342 2.051c-.816.401-1.54.725-2.218 1.018-2.402 1.05-2.618 1.25-2.602 2.36a1.541 1.541 0 0 1-3.08 0c0-3.285 2.125-4.241 4.45-5.26.616-.262 1.31-.57 2.064-.94a25.219 25.219 0 0 0 2.988-1.851 15.695 15.695 0 0 1 7.561-3.208 1.544 1.544 0 0 1 1.14 2.73 6.02 6.02 0 0 0-1.972 6.061c5.621-3.5 10.318-2.637 14.492-1.881 2.711.748 5.574.748 8.285 0 1.648-.57 3.47-.3 4.882.725a4.815 4.815 0 0 1 1.848 4.287 1.541 1.541 0 0 1-1.525 1.512zM38.608 79.278c-9.07 0-15.616-5.738-16.447-8.684a1.547 1.547 0 0 1 .383-1.497 1.542 1.542 0 0 1 2.589.665c.462 1.65 5.806 6.431 13.475 6.431 7.962 0 12.797-4.95 13.552-6.647a1.539 1.539 0 0 1 1.995-.688 1.543 1.543 0 0 1 .808 1.952c-1.186 2.653-6.961 8.468-16.355 8.468z"/>
    </g>
</svg>
