<?xml version="1.0" encoding="utf-8"?>
<!-- Generator: Adobe Illustrator 21.1.0, SVG Export Plug-In . SVG Version: 6.00 Build 0)  -->
<svg version="1.1" id="Camada_1" xmlns="http://www.w3.org/2000/svg" xmlns:xlink="http://www.w3.org/1999/xlink" x="0px" y="0px"
	 viewBox="0 0 70 70" style="enable-background:new 0 0 70 70;" xml:space="preserve">
<style type="text/css">
	.st0{fill:#FFFFFF;}
	.st1{fill:#002A76;stroke:#EEEEF1;}
	.st2{fill:#002A76;stroke:#FFFFFF;}
	.st3{fill:#002A76;}
</style>
<title>001_020_car_rush_delivery_transport_logistic</title>
<desc>Created with Sketch.</desc>
<g id="operador">
	<g id="omni_perfil_operador_mes" transform="translate(-91.000000, -453.000000)">
		<g id="_x30_01_x5F_020_x5F_car_x5F_rush_x5F_delivery_x5F_transport_x5F_logistic" transform="translate(92.000000, 454.000000)">
			<circle id="Oval" class="st0" cx="34.2" cy="34.2" r="24.5"/>
			<path id="Shape" class="st1" d="M34.2,68.3C15.3,68.3,0,53,0,34.2S15.3,0,34.2,0s34.2,15.3,34.2,34.2c0,9.1-3.6,17.7-10,24.2
				S43.2,68.3,34.2,68.3z M34.2,4.6C17.8,4.6,4.6,17.8,4.6,34.2s13.3,29.6,29.6,29.6s29.6-13.3,29.6-29.6c0-7.9-3.1-15.4-8.7-20.9
				S42,4.6,34.2,4.6L34.2,4.6z"/>
			<path id="Shape_1_" class="st2" d="M31.9,49.8C28,48.8,25,45.2,25,41c0-1.3,1-2.3,2.3-2.3s2.3,1,2.3,2.3c0,2.5,2,4.6,4.6,4.6
				s4.6-2,4.6-4.6c0-3.5-5.1-5-5.2-5c0,0-8.5-2.4-8.5-9.3c0-4.2,2.9-7.8,6.8-8.8v-1.9c0-1.3,1-2.3,2.3-2.3s2.3,1,2.3,2.3v1.9
				c3.9,1,6.8,4.6,6.8,8.8c0,1.3-1,2.3-2.3,2.3s-2.3-1-2.3-2.3c0-2.4-1.8-4.3-4.1-4.5c-0.1,0-0.3,0-0.5,0c-0.2,0-0.3,0-0.5,0
				c-2.3,0.2-4.1,2.2-4.1,4.5c0,3.5,5.1,5,5.2,5c0,0,8.5,2.5,8.5,9.4c0,4.2-2.9,7.7-6.8,8.7v2.6c0,1.3-1,2.3-2.3,2.3s-2.3-1-2.3-2.3
				V49.8z"/>
			<path id="Shape_2_" class="st3" d="M18.2,36.4c-0.6,0-1.2-0.2-1.6-0.7c-0.2-0.2-0.4-0.5-0.5-0.8c-0.1-0.3-0.2-0.6-0.2-0.9
				c0-0.6,0.2-1.2,0.7-1.6c0.5-0.5,1.3-0.8,2-0.6c0.2,0,0.3,0.1,0.4,0.1c0.1,0,0.3,0.1,0.4,0.2c0.1,0.1,0.3,0.2,0.4,0.3
				c0.4,0.4,0.7,1,0.7,1.6c0,0.3-0.1,0.6-0.2,0.9c-0.1,0.3-0.3,0.5-0.5,0.8c-0.2,0.2-0.5,0.4-0.8,0.5C18.8,36.4,18.5,36.4,18.2,36.4
				z"/>
			<path id="Shape_3_" class="st3" d="M50.1,36.4c-0.3,0-0.6-0.1-0.9-0.2c-0.3-0.1-0.5-0.3-0.8-0.5c-0.4-0.4-0.7-1-0.7-1.6
				c0-0.6,0.2-1.2,0.7-1.6c0.2-0.2,0.5-0.4,0.8-0.5c0.8-0.4,1.8-0.2,2.5,0.5c0.4,0.4,0.7,1,0.7,1.6c0,0.3-0.1,0.6-0.2,0.9
				c-0.1,0.3-0.3,0.5-0.5,0.8c-0.2,0.2-0.5,0.4-0.8,0.5C50.7,36.4,50.4,36.4,50.1,36.4z"/>
		</g>
	</g>
</g>
</svg>
